<?xml version="1.0" encoding="UTF-8" standalone="no"?>
<svg width="32px" height="24px" viewBox="0 0 32 24" version="1.1" xmlns="http://www.w3.org/2000/svg" xmlns:xlink="http://www.w3.org/1999/xlink" xmlns:sketch="http://www.bohemiancoding.com/sketch/ns">
    <!-- Generator: Sketch 3.5.2 (25235) - http://www.bohemiancoding.com/sketch -->
    <title>Shape</title>
    <desc>Created with Sketch.</desc>
    <defs></defs>
    <g id="Page-1" stroke="none" stroke-width="1" fill="none" fill-rule="evenodd" sketch:type="MSPage">
        <g id="Artboard-1" sketch:type="MSArtboardGroup" transform="translate(-103.000000, -40.000000)" fill="#FFFFFF">
            <g id="gplus" sketch:type="MSLayerGroup" transform="translate(97.000000, 30.000000)">
                <path d="M17.48,19.86 C17.07,20.27 16.58,20.71 16.58,21.4 C16.58,22.09 17.07,22.47 17.42,22.75 L18.57,23.63 C19.97,24.8 21.24,25.87 21.24,28.04 C21.24,30.99 18.34,33.98 12.85,33.98 C8.23,33.98 6,31.81 6,29.48 C6,28.35 6.58,26.75 8.46,25.65 C10.43,24.45 13.11,24.29 14.55,24.19 C14.1,23.63 13.59,23.04 13.59,22.06 C13.59,21.53 13.75,21.22 13.91,20.84 C13.56,20.86 13.21,20.9 12.89,20.9 C9.51,20.9 7.59,18.41 7.59,15.96 C7.59,14.51 8.26,12.9 9.64,11.74 C11.45,10.26 13.62,10 15.34,10 L21.91,10 L19.87,11.04 L17.89,11.04 C18.63,11.74 20.16,12.95 20.16,15.34 C20.16,17.67 18.82,18.83 17.48,19.86 Z M37.86,24.47 L33.05,24.47 L33.05,29.24 L29.8,29.24 L29.8,24.47 L25.01,24.47 L25.01,21.19 L29.8,21.19 L29.8,16.39 L33.05,16.39 L33.05,21.19 L37.86,21.19 L37.86,24.47 L37.86,24.47 Z M13.34,11.06 C12.51,11.06 11.61,11.47 11.1,12.1 C10.56,12.75 10.4,13.6 10.4,14.42 C10.4,16.53 11.65,20.02 14.39,20.02 C15.19,20.02 16.04,19.64 16.56,19.14 C17.29,18.41 17.35,17.41 17.35,16.85 C17.35,14.58 15.98,11.06 13.34,11.06 L13.34,11.06 Z M14.9,25.08 C14.61,25.08 12.89,25.14 11.55,25.59 C10.85,25.84 8.81,26.59 8.81,28.82 C8.81,31.05 11.01,32.66 14.42,32.66 C17.48,32.66 19.1,31.21 19.1,29.26 C19.1,27.66 18.06,26.81 15.63,25.11 C15.38,25.08 15.22,25.08 14.9,25.08 L14.9,25.08 Z" id="Shape" sketch:type="MSShapeGroup"></path>
            </g>
        </g>
    </g>
</svg>