<?xml version="1.0" encoding="UTF-8" standalone="no"?>
<svg width="30px" height="30px" viewBox="0 0 30 30" version="1.1" xmlns="http://www.w3.org/2000/svg" xmlns:xlink="http://www.w3.org/1999/xlink" xmlns:sketch="http://www.bohemiancoding.com/sketch/ns">
    <!-- Generator: Sketch 3.5.2 (25235) - http://www.bohemiancoding.com/sketch -->
    <title>Shape</title>
    <desc>Created with Sketch.</desc>
    <defs></defs>
    <g id="Page-1" stroke="none" stroke-width="1" fill="none" fill-rule="evenodd" sketch:type="MSPage">
        <path d="M4.98,9.46 L3.89,9.46 C2.06,9.46 0.57,10.95 0.57,12.78 L0.57,19.43 C0.57,21.27 2.06,22.75 3.89,22.75 L4.98,22.75 L4.98,19.98 L4.98,26.08 C4.98,27.91 6.47,29.4 8.3,29.4 L21.6,29.4 C23.43,29.4 24.92,27.91 24.92,26.08 L24.92,19.98 L24.92,22.75 L26.05,22.75 C27.88,22.75 29.37,21.27 29.37,19.43 L29.37,12.78 C29.37,10.95 27.88,9.46 26.05,9.46 L24.92,9.46 L24.92,3.92 C24.92,2.09 23.43,0.6 21.6,0.6 L8.3,0.6 C6.47,0.6 4.98,2.09 4.98,3.92 L4.98,9.46 L4.98,9.46 Z M7.2,17.22 L7.2,26.08 C7.2,26.69 7.69,27.18 8.3,27.18 L21.6,27.18 C22.21,27.18 22.7,26.69 22.7,26.08 L22.7,17.22 L7.2,17.22 L7.2,17.22 Z M7.2,9.46 L22.7,9.46 L22.7,3.92 C22.7,3.31 22.21,2.82 21.6,2.82 L8.3,2.82 C7.69,2.82 7.2,3.31 7.2,3.92 L7.2,9.46 L7.2,9.46 Z M9.43,22.75 L17.19,22.75 L17.19,24.97 L9.43,24.97 L9.43,22.75 L9.43,22.75 Z M9.43,19.43 L20.51,19.43 L20.51,21.65 L9.43,21.65 L9.43,19.43 L9.43,19.43 Z M24.39,15 C23.47,15 22.73,14.26 22.73,13.34 C22.73,12.42 23.47,11.68 24.39,11.68 C25.3,11.68 26.05,12.42 26.05,13.34 C26.05,14.26 25.3,15 24.39,15 L24.39,15 Z" id="Shape" fill="#CACACA" sketch:type="MSShapeGroup"></path>
    </g>
</svg>